MQP_slx16/isim.log
ISim log file
Running: R:\MQP\MQP_slx16\MQP_Test_isim_beh.exe -intstyle ise -gui -tclbatch isim.cmd -wdb R:/MQP/MQP_slx16/MQP_Test_isim_beh.wdb 
ISim P.20131013 (signature 0x7708f090)
----------------------------------------------------------------------
INFO:Security:50 - The XILINXD_LICENSE_FILE environment variable is set to '2100@XILINX.wpi.edu'.
INFO:Security:53 - The LM_LICENSE_FILE environment variable is not set.
WARNING:Security:43 - No license file was found in the standard Xilinx license directory.
WARNING:Security:44 - Since no license file was found,
       please run the Xilinx License Configuration Manager
       (xlcm or "Manage Xilinx Licenses")
       to assist in obtaining a license.
WARNING:Security:42 - Your software subscription period has lapsed. Your current version of Xilinx tools will continue to function, but you no longer qualify for Xilinx software updates or new releases.


----------------------------------------------------------------------
This is a Full version of ISim.
Time resolution is 1 ps
# onerror resume
# wave add /
# run 1000 ns
Simulator is doing circuit initialization process.
Finished circuit initialization process.
# run 660.00us
Time:             4110000 Next Data: 000000000000 Data Out: 000000000000 SI:0
Time:            15110000 Next Data: 000000000001 Data Out: 000000000000 SI:0
Time:            20110000 Next Data: 000000000010 Data Out: 000000000000 SI:0
Time:            25110000 Next Data: 000000000011 Data Out: 000000000000 SI:0
Time:            30110000 Next Data: 000000000100 Data Out: 000000000000 SI:0
Time:            35110000 Next Data: 000000000101 Data Out: 000000000000 SI:0
Time:            40110000 Next Data: 000000000110 Data Out: 000000000000 SI:0
Time:            45110000 Next Data: 000000000111 Data Out: 000000000000 SI:0
Time:            50110000 Next Data: 000000001000 Data Out: 000000000000 SI:0
Time:            55110000 Next Data: 000000001001 Data Out: 000000000000 SI:0
Time:            60110000 Next Data: 000000001010 Data Out: 000000000000 SI:0
Time:            65110000 Next Data: 000000001011 Data Out: 000000000000 SI:0
Time:            70110000 Next Data: 000000001100 Data Out: 000000000000 SI:0
Time:            75110000 Next Data: 000000001101 Data Out: 000000000000 SI:0
Time:            80110000 Next Data: 000000001110 Data Out: 000000000000 SI:0
Time:            85110000 Next Data: 000000001111 Data Out: 000000000000 SI:0
Time:            90110000 Next Data: 000000010000 Data Out: 000000000000 SI:0
Time:            95110000 Next Data: 000000010001 Data Out: 000000000000 SI:0
Time:           100110000 Next Data: 000000010010 Data Out: 000000000000 SI:0
Time:           105110000 Next Data: 000000010011 Data Out: 000000000000 SI:0
Time:           110110000 Next Data: 000000010100 Data Out: 000000000000 SI:0
Time:           115110000 Next Data: 000000010101 Data Out: 000000000000 SI:0
Time:           120110000 Next Data: 000000010110 Data Out: 000000000000 SI:0
Time:           125110000 Next Data: 000000010111 Data Out: 000000000000 SI:0
Time:           130110000 Next Data: 000000011000 Data Out: 000000000000 SI:0
Time:           135110000 Next Data: 000000011001 Data Out: 000000000000 SI:0
Time:           140110000 Next Data: 000000011010 Data Out: 000000000000 SI:0
Time:           145110000 Next Data: 000000011011 Data Out: 000000000000 SI:0
Time:           150110000 Next Data: 000000011100 Data Out: 000000000000 SI:0
Time:           155110000 Next Data: 000000011101 Data Out: 000000000000 SI:0
Time:           160110000 Next Data: 000000011110 Data Out: 000000000000 SI:0
Time:           165110000 Next Data: 000000011111 Data Out: 000000000000 SI:0
Time:           170110000 Next Data: 000000100000 Data Out: 000000000000 SI:0
Time:           175110000 Next Data: 000000100001 Data Out: 000000000000 SI:0
Time:           180110000 Next Data: 000000100010 Data Out: 000000000000 SI:0
Time:           185110000 Next Data: 000000100011 Data Out: 000000000000 SI:0
Time:           190110000 Next Data: 000000100100 Data Out: 000000000000 SI:0
Time:           195110000 Next Data: 000000100101 Data Out: 000000000000 SI:0
Time:           200110000 Next Data: 000000100110 Data Out: 000000000000 SI:0
Time:           205110000 Next Data: 000000100111 Data Out: 000000000000 SI:0
Time:           210110000 Next Data: 000000101000 Data Out: 000000000000 SI:0
Time:           215110000 Next Data: 000000101001 Data Out: 000000000000 SI:0
Time:           220110000 Next Data: 000000101010 Data Out: 000000000000 SI:0
Time:           225110000 Next Data: 000000101011 Data Out: 000000000000 SI:0
Time:           230110000 Next Data: 000000101100 Data Out: 000000000000 SI:0
Time:           235110000 Next Data: 000000101101 Data Out: 000000000000 SI:0
Time:           240110000 Next Data: 000000101110 Data Out: 000000000000 SI:0
Time:           245110000 Next Data: 000000101111 Data Out: 000000000000 SI:0
Time:           250110000 Next Data: 000000110000 Data Out: 000000000000 SI:0
Time:           255110000 Next Data: 000000110001 Data Out: 000000000000 SI:0
Time:           260110000 Next Data: 000000110010 Data Out: 000000000000 SI:0
Time:           265110000 Next Data: 000000110011 Data Out: 000000000000 SI:0
Time:           270110000 Next Data: 000000110100 Data Out: 000000000000 SI:0
Time:           275110000 Next Data: 000000110101 Data Out: 000000000000 SI:0
Time:           280110000 Next Data: 000000110110 Data Out: 000000000000 SI:0
Time:           285110000 Next Data: 000000110111 Data Out: 000000000000 SI:0
Time:           290110000 Next Data: 000000111000 Data Out: 000000000000 SI:0
Time:           295110000 Next Data: 000000111001 Data Out: 000000000000 SI:0
Time:           300110000 Next Data: 000000111010 Data Out: 000000000000 SI:0
Time:           305110000 Next Data: 000000111011 Data Out: 000000000000 SI:0
Time:           310110000 Next Data: 000000111100 Data Out: 000000000000 SI:0
Time:           315110000 Next Data: 000000111101 Data Out: 000000000000 SI:0
Time:           320110000 Next Data: 000000111110 Data Out: 000000000000 SI:0
Time:           325110000 Next Data: 000000111111 Data Out: 000000000000 SI:0
Time:           330110000 Next Data: 000001000000 Data Out: 000000000000 SI:0
Time:           335110000 Next Data: 000001000001 Data Out: 000000000000 SI:0
Time:           340110000 Next Data: 000001000010 Data Out: 000000000000 SI:0
Time:           345110000 Next Data: 000001000011 Data Out: 000000000000 SI:0
Time:           350110000 Next Data: 000001000100 Data Out: 000000000000 SI:0
Time:           355110000 Next Data: 000001000101 Data Out: 000000000000 SI:0
Time:           360110000 Next Data: 000001000110 Data Out: 000000000000 SI:0
Time:           365110000 Next Data: 000001000111 Data Out: 000000000000 SI:0
Time:           370110000 Next Data: 000001001000 Data Out: 000000000000 SI:0
Time:           375110000 Next Data: 000001001001 Data Out: 000000000000 SI:0
Time:           380110000 Next Data: 000001001010 Data Out: 000000000000 SI:0
Time:           385110000 Next Data: 000001001011 Data Out: 000000000000 SI:0
Time:           390110000 Next Data: 000001001100 Data Out: 000000000000 SI:0
Time:           395110000 Next Data: 000001001101 Data Out: 000000000000 SI:0
Time:           400110000 Next Data: 000001001110 Data Out: 000000000000 SI:0
Time:           405110000 Next Data: 000001001111 Data Out: 000000000000 SI:0
Time:           410110000 Next Data: 000001010000 Data Out: 000000000000 SI:0
Time:           415110000 Next Data: 000001010001 Data Out: 000000000000 SI:0
Time:           420110000 Next Data: 000001010010 Data Out: 000000000000 SI:0
Time:           425110000 Next Data: 000001010011 Data Out: 000000000000 SI:0
Time:           430110000 Next Data: 000001010100 Data Out: 000000000000 SI:0
Time:           435110000 Next Data: 000001010101 Data Out: 000000000000 SI:0
Time:           440110000 Next Data: 000001010110 Data Out: 000000000000 SI:0
Time:           445110000 Next Data: 000001010111 Data Out: 000000000000 SI:0
Time:           450110000 Next Data: 000001011000 Data Out: 000000000000 SI:0
Time:           455110000 Next Data: 000001011001 Data Out: 000000000000 SI:0
Time:           460110000 Next Data: 000001011010 Data Out: 000000000000 SI:0
Time:           465110000 Next Data: 000001011011 Data Out: 000000000000 SI:0
Time:           470110000 Next Data: 000001011100 Data Out: 000000000000 SI:0
Time:           475110000 Next Data: 000001011101 Data Out: 000000000000 SI:0
Time:           480110000 Next Data: 000001011110 Data Out: 000000000000 SI:0
Time:           485110000 Next Data: 000001011111 Data Out: 000000000000 SI:0
Time:           490110000 Next Data: 000001100000 Data Out: 000000000000 SI:0
Time:           495110000 Next Data: 000001100001 Data Out: 000000000000 SI:0
Time:           500110000 Next Data: 000001100010 Data Out: 000000000000 SI:0
Time:           505110000 Next Data: 000001100011 Data Out: 000000000000 SI:0
Time:           510110000 Next Data: 000001100100 Data Out: 000000000000 SI:0
Time:           515110000 Next Data: 000001100101 Data Out: 000000000000 SI:0
Time:           520110000 Next Data: 000001100110 Data Out: 000000000000 SI:0
Time:           525110000 Next Data: 000001100111 Data Out: 000000000000 SI:0
Time:           530110000 Next Data: 000001101000 Data Out: 000000000000 SI:0
Time:           535110000 Next Data: 000001101001 Data Out: 000000000000 SI:0
Time:           540110000 Next Data: 000001101010 Data Out: 000000000000 SI:0
Time:           545110000 Next Data: 000001101011 Data Out: 000000000000 SI:0
Time:           550110000 Next Data: 000001101100 Data Out: 000000000000 SI:0
Time:           555110000 Next Data: 000001101101 Data Out: 000000000000 SI:0
Time:           560110000 Next Data: 000001101110 Data Out: 000000000000 SI:0
Time:           565110000 Next Data: 000001101111 Data Out: 000000000000 SI:0
Time:           570110000 Next Data: 000001110000 Data Out: 000000000000 SI:0
Time:           575110000 Next Data: 000001110001 Data Out: 000000000000 SI:0
Time:           580110000 Next Data: 000001110010 Data Out: 000000000000 SI:0
Time:           585110000 Next Data: 000001110011 Data Out: 000000000000 SI:0
Time:           590110000 Next Data: 000001110100 Data Out: 000000000000 SI:0
Time:           595110000 Next Data: 000001110101 Data Out: 000000000000 SI:0
Time:           600110000 Next Data: 000001110110 Data Out: 000000000000 SI:0
Time:           605110000 Next Data: 000001110111 Data Out: 000000000000 SI:0
Time:           610110000 Next Data: 000001111000 Data Out: 000000000000 SI:0
Time:           615110000 Next Data: 000001111001 Data Out: 000000000000 SI:0
Time:           620110000 Next Data: 000001111010 Data Out: 000000000000 SI:0
Time:           625110000 Next Data: 000001111011 Data Out: 000000000000 SI:0
Time:           630110000 Next Data: 000001111100 Data Out: 000000000000 SI:0
Time:           635110000 Next Data: 000001111101 Data Out: 000000000000 SI:0
Time:           640110000 Next Data: 000001111110 Data Out: 000000000000 SI:0
Time:           645110000 Next Data: 000001111111 Data Out: 000000000000 SI:0
Time:           650110000 Next Data: 000010000000 Data Out: 000000000000 SI:1
Time:           660110000 Next Data: 000010000001 Data Out: 000000000000 SI:0
